Examples in Time Series Analysis and Application - 1 Smoothing
…
Now, forest_fire_ma is a time series data frame with three series: original value cnt, 3-yr moving average ma3, and 6-yr moving average ma6.

1.1.4 Visualization

Covert this to a long form by calling pivot_longer(). The resulting time series data frame will have key that is a label of each series.

forest_fire_ma_long <- 
  forest_fire_ma |>
  pivot_longer(c(cnt, ma3, ma6), names_to = "statistics")

forest_fire_ma_long

# A tsibble: 33 x 3 [1Y]
# Key:       statistics [3]
    year statistics value
   <dbl> <chr>      <dbl>
 1  2006 cnt          369
 2  2006 ma3           NA
 3  2006 ma6           NA
 4  2007 cnt          418
 5  2007 ma3           NA
 6  2007 ma6           NA
 7  2008 cnt          389
 8  2008 ma3          392
 9  2008 ma6           NA
10  2009 cnt          570
# ℹ 23 more rows
…
