Examples in Time Series Analysis and Application - 2 Stationary time series
…
library(feasts)  # feature extraction, statistics, visualization for time series data
library(readxl)

2.1 Examples 2.2, 2.4

2.1.1 Load data

earthquake <-
  read_excel("data/J08.xlsx", skip = 1, n_max = 50) |>
  mutate(year = year(year)) |>
  as_tsibble(index = year)
earthquake

# A tsibble: 50 x 2 [1Y]
    year numbers
   <dbl>   <dbl>
 1  1949      36
 2  1950      39
 3  1951      21
 4  1952      17
 5  1953      22
 6  1954      17
 7  1955      19
 8  1956      15
 9  1957      34
10  1958      10
# ℹ 40 more rows
…
