Examples in Time Series Analysis and Application - 5 ARMA forecast
…
5.1.2 Time series cross-validation

ts_cv <- 
  ts |> 
  stretch_tsibble(.step = 1, .init = 10) |> 
  filter(.id != max(.id))

ts_cv

# A tsibble: 145 x 3 [1]
# Key:       .id [10]
       t  value   .id
   <int>  <dbl> <int>
 1     1 -1.36      1
 2     2 -1.57      1
 3     3 -0.994     1
 4     4 -0.417     1
 5     5  0.84      1
 6     6 -0.991     1
 7     7  0.166     1
 8     8  0.889     1
 9     9  0.514     1
10    10 -0.491     1
# ℹ 135 more rows
…
