Examples in Time Series Analysis and Application - 6 ARIMA
…
6.3 Example 6.12 - 6.13

6.3.1 Load data

gas_consumption <- read_excel("data/J03.xlsx", skip = 1) |> 
  fill(year, .direction = "down") |> 
  rename(consumption = comsumption) |>  # fix typo in column name
  mutate(year_month = make_yearmonth(year, month), .before = 1L) |> 
  select(!c(year, month)) |> 
  as_tsibble(index = year_month)

gas_consumption

# A tsibble: 84 x 2 [1M]
   year_month consumption
        <mth>       <dbl>
 1   2011 Jan        2006
 2   2011 Feb        1620
 3   2011 Mar        1354
 4   2011 Apr         956
 5   2011 May         560
 6   2011 Jun         317
 7   2011 Jul         254
 8   2011 Aug         214
 9   2011 Sep         231
10   2011 Oct         482
# ℹ 74 more rows

6.3.2 Ex 6.12: Classical decomposition - additive

gas_consumption_additive <- 
  gas_consumption |> 
  model(classical_decomposition(consumption, type = "additive"))

Extract components by calling components() function. It returns dable object, which stands for decomposition table.

gas_consumption_additive |> 
  components()

# A dable: 84 x 7 [1M]
# Key:     .model [1]
# :        consumption = trend + seasonal + random
   .model             year_month consumption trend seasonal random season_adjust
   <chr>                   <mth>       <dbl> <dbl>    <dbl>  <dbl>         <dbl>
 1 "classical_decomp…   2011 Jan        2006   NA     972.   NA            1034.
 2 "classical_decomp…   2011 Feb        1620   NA     807.   NA             813.
 3 "classical_decomp…   2011 Mar        1354   NA     487.   NA             867.
 4 "classical_decomp…   2011 Apr         956   NA      41.0  NA             915.
 5 "classical_decomp…   2011 May         560   NA    -327.   NA             887.
 6 "classical_decomp…   2011 Jun         317   NA    -524.   NA             841.
 7 "classical_decomp…   2011 Jul         254  834.   -574.   -6.33          828.
 8 "classical_decomp…   2011 Aug         214  828.   -606.   -7.51          820.
 9 "classical_decomp…   2011 Sep         231  831.   -585.  -15.4           816.
10 "classical_decomp…   2011 Oct         482  829.   -396.   48.9           878.
# ℹ 74 more rows
…
6.3.3 Ex 6.13: Classical decomposition - multiplicative

gas_consumption_multiplicative <- 
  gas_consumption |> 
  model(classical_decomposition(consumption, type = "multiplicative"))

gas_consumption_multiplicative |> 
  components()

# A dable: 84 x 7 [1M]
# Key:     .model [1]
# :        consumption = trend * seasonal * random
   .model             year_month consumption trend seasonal random season_adjust
   <chr>                   <mth>       <dbl> <dbl>    <dbl>  <dbl>         <dbl>
 1 "classical_decomp…   2011 Jan        2006   NA     2.21   NA             906.
 2 "classical_decomp…   2011 Feb        1620   NA     2.01   NA             807.
 3 "classical_decomp…   2011 Mar        1354   NA     1.61   NA             842.
 4 "classical_decomp…   2011 Apr         956   NA     1.05   NA             912.
 5 "classical_decomp…   2011 May         560   NA     0.589  NA             950.
 6 "classical_decomp…   2011 Jun         317   NA     0.348  NA             912.
 7 "classical_decomp…   2011 Jul         254  834.    0.285   1.07          891.
 8 "classical_decomp…   2011 Aug         214  828.    0.244   1.06          876.
 9 "classical_decomp…   2011 Sep         231  831.    0.272   1.02          851.
10 "classical_decomp…   2011 Oct         482  829.    0.504   1.15          955.
# ℹ 74 more rows
…
6.4 Example 6.14

6.4.1 Load data

Because data is not observed on dates that stock market is closed (e.g. weekends, holidays), data is not regular daily time series. Let us create new index column t to denote number of business days.

kospi <- 
  read_excel("data/J10.xlsx") |> 
  mutate(Date = as_date(Date)) |> 
  mutate(t = row_number()) |> 
  as_tsibble(index = t)

kospi

# A tsibble: 239 x 6 [1]
   Date        Open  High   Low Close     t
   <date>     <dbl> <dbl> <dbl> <dbl> <int>
 1 2017-07-03 2398. 2400. 2385. 2394.     1
 2 2017-07-04 2395. 2398. 2376. 2381.     2
 3 2017-07-05 2377. 2390. 2376. 2388.     3
 4 2017-07-06 2390. 2392. 2381. 2388.     4
 5 2017-07-07 2376. 2385. 2373. 2380.     5
 6 2017-07-10 2386. 2390. 2378. 2382.     6
 7 2017-07-11 2386. 2396. 2383. 2396      7
 8 2017-07-12 2395. 2399. 2390. 2392.     8
 9 2017-07-13 2406. 2422. 2403. 2409.     9
10 2017-07-14 2418. 2421. 2411. 2415.    10
# ℹ 229 more rows
…
